[{
  "id": 1,
  "productName": "Аппарат для искусственной вентиляции легких ЮВЕНТ A",
  "price": 429000 ,
  "imgUrl": "https://alvimedika.com.ua/597-thickbox_default/apparat-iskusstvennoy-ventiljatsii-legkih-uvent-a.jpg",
  "vendorСod": "675415"
},
{
  "id": 2,
  "productName": "Операционный хирургический стол экспертного класса JW-T2000",
  "price": 648820,
  "imgUrl": "https://techno-med.com.ua/image/cache/webp/catalog/mde/med-com-ua-media-catalog-product-s-t-stol-jw-t2000-1000x1000.webp",
  "vendorСod": "675376"
},
{
  "id": 3,
  "productName": "Механично-гидравлический операционный стол 3008C",
  "price": 89262,
  "imgUrl": "https://images.prom.ua/420982626_w640_h640_420982626.jpg",
  "vendorСod": "675414"
},
{
  "id": 4,
  "productName": "МОБИЛЬНЫЙ РЕНТГЕН АППАРАТ DM-100MR",
  "price": 36500,
  "imgUrl": "https://med-mm.com/image/data/DM-100MR-2-500x500-1.jpg",
  "vendorСod": "675876"
},
{
  "id": 5,
  "productName": "Комплекс рентгеновский диагностический КРД 50 в модификации КРД INDIascop цифровой (на 3 рабочих места)",
  "price": 6140000,
  "imgUrl": "https://med-mm.com/image/cache/data/oborydovanie/Indiascop_-700x7001_0.png",
  "vendorСod": "675348"
},
{
  "id": 6,
  "productName": "Комплекс рентгеновский диагностический КРД 50 в модификации КРД INDIascan",
  "price": 1900000,
  "imgUrl": "https://pribormed.com.ua/images/watermarked/detailed/1/indiascan.jpg",
  "vendorСod": "675357"
},
{
  "id": 7,
  "productName": "Автоматический гематологический анализатор Edan H30",
  "price": 160665,
  "imgUrl": "https://images.prom.ua/3001774487_w640_h640_avtomaticheskij-gematologicheskij-analizator.jpg",
  "vendorСod": "675350"
},
{
  "id": 8,
  "productName": "Автоматический биохимический анализатор DS-261",
  "price": 400550,
  "imgUrl": "https://diameb.ua/media/product_show/uploads/product/598db0b23609d.jpg",
  "vendorСod": "675351"
},
{
  "id": 9,
  "productName": "Микроскоп бинокулярный XSG-109L",
  "price": 19440,
  "imgUrl": "https://files.ub.ua/goods/goods-photos/1000/810275_x-XSG-109L1efa-50848662.jpg",
  "vendorСod": "675354"
},
{
  "id": 10,
  "productName": "Рабочее место офтальмолога PRO 1000 Rodenstock",
  "price": 234000,
  "imgUrl": "https://medmag.ua/image/cache/catalog/image/medicinskim_uchrezhdeniyam/oftalmologiya/rabochee-mesto/pro-1000-552x552.jpg",
  "vendorСod": "675421"
}
]
